Modelling with tidymodels
…
# Obtain estimated probabilities for each outcome value
prob_preds <- predict(logistic_fit, new_data = telecom_test, 
                      type = 'prob')

# Combine test set results
telecom_results <- telecom_test %>% 
  select(canceled_service) %>% 
  bind_cols(class_preds, prob_preds)

# View results tibble
telecom_results

# A tibble: 244 × 4
   canceled_service .pred_class .pred_yes .pred_no
   <fct>            <fct>           <dbl>    <dbl>
 1 yes              yes             0.799    0.201
 2 no               no              0.113    0.887
 3 yes              yes             0.585    0.415
 4 no               no              0.406    0.594
 5 no               no              0.239    0.761
 6 no               no              0.227    0.773
 7 no               no              0.159    0.841
 8 no               no              0.148    0.852
 9 no               no              0.129    0.871
10 no               no              0.183    0.817
# … with 234 more rows
…
Use threshold_df to to plot your model’s ROC
curve.

Calculate the area under the ROC curve using the
telecom_results tibble.

# Calculate metrics across thresholds
threshold_df <- telecom_results %>% 
  roc_curve(truth = canceled_service, .pred_yes)

# View results
threshold_df

# A tibble: 246 × 3
   .threshold specificity sensitivity
        <dbl>       <dbl>       <dbl>
 1  -Inf          0             1    
 2     0.0108     0             1    
 3     0.0174     0             0.988
 4     0.0329     0.00617       0.988
 5     0.0353     0.0123        0.988
 6     0.0639     0.0185        0.988
 7     0.0649     0.0247        0.988
 8     0.0666     0.0309        0.988
 9     0.0693     0.0370        0.988
10     0.0696     0.0432        0.988
# … with 236 more rows
…
Create a custom metric function, last_fit_metrics,
using the metric_set() function.

Include the accuracy, sensitivity, specificity, and area under the
ROC curve in your metric function, in that order.

# Collect predictions
last_fit_results <- telecom_last_fit %>% 
  collect_predictions()

# View results
last_fit_results

# A tibble: 244 × 7
   id               .pred_yes .pred_no  .row .pred_class canceled_serv…¹ .config
   <chr>                <dbl>    <dbl> <int> <fct>       <fct>           <chr>  
 1 train/test split     0.799    0.201     7 yes         yes             Prepro…
 2 train/test split     0.113    0.887     8 no          no              Prepro…
 3 train/test split     0.585    0.415    12 yes         yes             Prepro…
 4 train/test split     0.406    0.594    13 no          no              Prepro…
 5 train/test split     0.239    0.761    20 no          no              Prepro…
 6 train/test split     0.227    0.773    25 no          no              Prepro…
 7 train/test split     0.159    0.841    26 no          no              Prepro…
 8 train/test split     0.148    0.852    29 no          no              Prepro…
 9 train/test split     0.129    0.871    32 no          no              Prepro…
10 train/test split     0.183    0.817    36 no          no              Prepro…
# … with 234 more rows, and abbreviated variable name ¹​canceled_service
…
