Modelling with tidymodels
…
      role #variables
   outcome          1
 predictor          8

Training data contained 731 data points and no missing data.

Operations:

Log transformation on avg_call_mins, avg_intl_mins [trained]

# Use your trained recipe to obtain the transformed training dataset.
telecom_log_rec_prep %>% 
  bake(new_data = NULL)

# A tibble: 731 × 9
   cellular_se…¹ avg_d…² avg_c…³ avg_i…⁴ inter…⁵ contr…⁶ month…⁷ month…⁸ cance…⁹
   <fct>           <dbl>   <dbl>   <dbl> <fct>   <fct>     <dbl>   <dbl> <fct>  
 1 single_line     10.3     2.42    1.74 fiber_… one_ye…      50   103.  no     
 2 multiple_lin…    8.05    2.52    2.09 digital two_ye…      50    75.2 no     
 3 single_line      9.3     2.51    2.06 fiber_… month_…      25    95.7 no     
 4 multiple_lin…    9.96    2.53    2.13 fiber_… month_…      61   106.  no     
 5 single_line      6.69    2.55    1.96 digital month_…       6    59.2 no     
 6 single_line      9.37    2.58    1.94 fiber_… month_…       4    94.9 no     
 7 multiple_lin…    4.11    2.57    1.81 digital two_ye…      72    55.3 no     
 8 multiple_lin…   10.6     2.45    2.17 fiber_… two_ye…      54   108   no     
 9 multiple_lin…    7.86    2.58    2.21 digital one_ye…      23    73.8 no     
10 single_line      8.67    1.97    2.12 fiber_… two_ye…      55    88.8 no     
# … with 721 more rows, and abbreviated variable names ¹​cellular_service,
#   ²​avg_data_gb, ³​avg_call_mins, ⁴​avg_intl_mins, ⁵​internet_service, ⁶​contract,
#   ⁷​months_with_company, ⁸​monthly_charges, ⁹​canceled_service

Apply your trained recipe to the test dataset.

# Apply to test data
telecom_log_rec_prep %>% 
  bake(new_data = telecom_test)

# A tibble: 244 × 9
   cellular_se…¹ avg_d…² avg_c…³ avg_i…⁴ inter…⁵ contr…⁶ month…⁷ month…⁸ cance…⁹
   <fct>           <dbl>   <dbl>   <dbl> <fct>   <fct>     <dbl>   <dbl> <fct>  
 1 multiple_lin…    8.01    2.72    1.99 fiber_… month_…      19    83.6 yes    
 2 multiple_lin…    9.4     2.49    2.17 fiber_… one_ye…      50    99.4 no     
 3 single_line      6.23    2.63    1.98 fiber_… month_…      33    68.2 yes    
 4 multiple_lin…   10.2     2.60    2.06 fiber_… month_…      17    92.7 no     
 5 multiple_lin…    5.17    2.53    2.08 digital month_…       6    49.0 no     
 6 multiple_lin…   11.8     2.54    2.10 fiber_… two_ye…      71   115.  no     
 7 single_line      8.02    2.38    1.98 fiber_… month_…       9    88.4 no     
 8 multiple_lin…   11.0     2.49    2.12 fiber_… two_ye…      46   109.  no     
 9 single_line      6.19    2.29    1.91 digital one_ye…      14    59.1 no     
10 multiple_lin…   12.2     2.57    2.18 fiber_… two_ye…      35   113.  no     
# … with 234 more rows, and abbreviated variable names ¹​cellular_service,
#   ²​avg_data_gb, ³​avg_call_mins, ⁴​avg_intl_mins, ⁵​internet_service, ⁶​contract,
#   ⁷​months_with_company, ⁸​monthly_charges, ⁹​canceled_service
…
# Specify a recipe object
telecom_cor_rec <- recipe(canceled_service ~.,
                          data = telecom_training) %>%
  # Remove correlated variables
  step_corr(all_numeric(), threshold = 0.8)

# Train the recipe
telecom_cor_rec_prep <- telecom_cor_rec %>% 
  prep(training = telecom_training)

# Apply to training data
telecom_cor_rec_prep %>% 
  bake(new_data = NULL)

# A tibble: 731 × 8
   cellular_service avg_data_gb avg_ca…¹ avg_i…² inter…³ contr…⁴ month…⁵ cance…⁶
   <fct>                  <dbl>    <dbl>   <dbl> <fct>   <fct>     <dbl> <fct>  
 1 single_line            10.3       262      55 fiber_… one_ye…      50 no     
 2 multiple_lines          8.05      328     122 digital two_ye…      50 no     
 3 single_line             9.3       326     114 fiber_… month_…      25 no     
 4 multiple_lines          9.96      340     136 fiber_… month_…      61 no     
 5 single_line             6.69      352      91 digital month_…       6 no     
 6 single_line             9.37      382      87 fiber_… month_…       4 no     
 7 multiple_lines          4.11      371      64 digital two_ye…      72 no     
 8 multiple_lines         10.6       281     147 fiber_… two_ye…      54 no     
 9 multiple_lines          7.86      378     164 digital one_ye…      23 no     
10 single_line             8.67       93     131 fiber_… two_ye…      55 no     
# … with 721 more rows, and abbreviated variable names ¹​avg_call_mins,
#   ²​avg_intl_mins, ³​internet_service, ⁴​contract, ⁵​months_with_company,
#   ⁶​canceled_service

# Apply to test data
telecom_cor_rec_prep %>% 
  bake(new_data=telecom_test)

# A tibble: 244 × 8
   cellular_service avg_data_gb avg_ca…¹ avg_i…² inter…³ contr…⁴ month…⁵ cance…⁶
   <fct>                  <dbl>    <dbl>   <dbl> <fct>   <fct>     <dbl> <fct>  
 1 multiple_lines          8.01      525      97 fiber_… month_…      19 yes    
 2 multiple_lines          9.4       312     147 fiber_… one_ye…      50 no     
 3 single_line             6.23      429      96 fiber_… month_…      33 yes    
 4 multiple_lines         10.2       402     116 fiber_… month_…      17 no     
 5 multiple_lines          5.17      341     119 digital month_…       6 no     
 6 multiple_lines         11.8       343     126 fiber_… two_ye…      71 no     
 7 single_line             8.02      240      95 fiber_… month_…       9 no     
 8 multiple_lines         11.0       310     133 fiber_… two_ye…      46 no     
 9 single_line             6.19      193      82 digital one_ye…      14 no     
10 multiple_lines         12.2       369     150 fiber_… two_ye…      35 no     
# … with 234 more rows, and abbreviated variable names ¹​avg_call_mins,
#   ²​avg_intl_mins, ³​internet_service, ⁴​contract, ⁵​months_with_company,
#   ⁶​canceled_service
…
# Train the recipe
telecom_norm_rec_prep <- telecom_norm_rec %>% 
  prep(telecom_training)

# Apply to test data
telecom_norm_rec_prep %>% 
  bake(new_data = telecom_test)

# A tibble: 244 × 8
   cellular_service avg_data_gb avg_ca…¹ avg_i…² inter…³ contr…⁴ month…⁵ cance…⁶
   <fct>                  <dbl>    <dbl>   <dbl> <fct>   <fct>     <dbl> <fct>  
 1 multiple_lines        -0.135   2.38    -0.375 fiber_… month_… -0.614  yes    
 2 multiple_lines         0.594  -0.451    1.21  fiber_… one_ye…  0.616  no     
 3 single_line           -1.07    1.10    -0.407 fiber_… month_… -0.0586 yes    
 4 multiple_lines         1.01    0.745    0.228 fiber_… month_… -0.694  no     
 5 multiple_lines        -1.62   -0.0654   0.323 digital month_… -1.13   no     
 6 multiple_lines         1.83   -0.0388   0.545 fiber_… two_ye…  1.45   no     
 7 single_line           -0.130  -1.41    -0.439 fiber_… month_… -1.01   no     
 8 multiple_lines         1.45   -0.477    0.768 fiber_… two_ye…  0.457  no     
 9 single_line           -1.09   -2.03    -0.852 digital one_ye… -0.813  no     
10 multiple_lines         2.08    0.307    1.31  fiber_… two_ye…  0.0207 no     
# … with 234 more rows, and abbreviated variable names ¹​avg_call_mins,
#   ²​avg_intl_mins, ³​internet_service, ⁴​contract, ⁵​months_with_company,
#   ⁶​canceled_service
…
telecom_recipe_1 <- 
  recipe(canceled_service ~ avg_data_gb + contract, data = telecom_training)  %>% 
  # Normalize numeric predictors
  step_normalize(all_numeric_predictors())  %>% 
  # Create dummy variables for nominal predictors
  step_dummy(all_nominal(), -all_outcomes())

# Train and apply telecom_recipe_1 on the test data
telecom_recipe_1 %>% 
  prep(telecom_training) %>% 
  bake(new_data = telecom_test)

# A tibble: 244 × 4
   avg_data_gb canceled_service contract_one_year contract_two_year
         <dbl> <fct>                        <dbl>             <dbl>
 1      -0.135 yes                              0                 0
 2       0.594 no                               1                 0
 3      -1.07  yes                              0                 0
 4       1.01  no                               0                 0
 5      -1.62  no                               0                 0
 6       1.83  no                               0                 1
 7      -0.130 no                               0                 0
 8       1.45  no                               0                 1
 9      -1.09  no                               1                 0
10       2.08  no                               0                 1
# … with 234 more rows

telecom_recipe_2 <- 
  recipe(canceled_service ~ avg_data_gb + contract, data = telecom_training)  %>% 
  # Create dummy variables for nominal predictors
  step_dummy(all_nominal(), -all_outcomes())  %>% 
  # Normalize numeric predictors
  step_normalize(all_numeric_predictors())

# Train and apply telecom_recipe_2 on the test data
telecom_recipe_2 %>% 
  prep(telecom_training) %>% 
  bake(new_data = telecom_test)

# A tibble: 244 × 4
   avg_data_gb canceled_service contract_one_year contract_two_year
         <dbl> <fct>                        <dbl>             <dbl>
 1      -0.135 yes                         -0.514            -0.471
 2       0.594 no                           1.94             -0.471
 3      -1.07  yes                         -0.514            -0.471
 4       1.01  no                          -0.514            -0.471
 5      -1.62  no                          -0.514            -0.471
 6       1.83  no                          -0.514             2.12 
 7      -0.130 no                          -0.514            -0.471
 8       1.45  no                          -0.514             2.12 
 9      -1.09  no                           1.94             -0.471
10       2.08  no                          -0.514             2.12 
# … with 234 more rows
…
# Create a recipe that predicts canceled_service using the training data
telecom_recipe <- recipe(canceled_service ~ ., data=telecom_training) %>% 
  # Remove correlated predictors
  step_corr(all_numeric_predictors(), threshold = 0.8) %>% 
  # Normalize numeric predictors
  step_normalize(all_numeric_predictors()) %>% 
  # Create dummy variables
  step_dummy(all_nominal(), -all_outcomes())

# Train your recipe and apply it to the test data
telecom_recipe %>% 
  prep(telecom_training) %>% 
  bake(new_data=telecom_test)

# A tibble: 244 × 9
   avg_data_gb avg_cal…¹ avg_i…² month…³ cance…⁴ cellu…⁵ inter…⁶ contr…⁷ contr…⁸
         <dbl>     <dbl>   <dbl>   <dbl> <fct>     <dbl>   <dbl>   <dbl>   <dbl>
 1      -0.135    2.38    -0.375 -0.614  yes           0       0       0       0
 2       0.594   -0.451    1.21   0.616  no            0       0       1       0
 3      -1.07     1.10    -0.407 -0.0586 yes           1       0       0       0
 4       1.01     0.745    0.228 -0.694  no            0       0       0       0
 5      -1.62    -0.0654   0.323 -1.13   no            0       1       0       0
 6       1.83    -0.0388   0.545  1.45   no            0       0       0       1
 7      -0.130   -1.41    -0.439 -1.01   no            1       0       0       0
 8       1.45    -0.477    0.768  0.457  no            0       0       0       1
 9      -1.09    -2.03    -0.852 -0.813  no            1       1       1       0
10       2.08     0.307    1.31   0.0207 no            0       0       0       1
# … with 234 more rows, and abbreviated variable names ¹​avg_call_mins,
#   ²​avg_intl_mins, ³​months_with_company, ⁴​canceled_service,
#   ⁵​cellular_service_single_line, ⁶​internet_service_digital,
#   ⁷​contract_one_year, ⁸​contract_two_year
…
# Obtain estimated probabilities
prob_preds <- predict(logistic_fit, new_data = telecom_test_prep, 
                      type = 'prob')

# Combine test set results
telecom_results <- telecom_test_prep %>% 
  select(canceled_service) %>% 
  bind_cols(class_preds, prob_preds)

telecom_results

# A tibble: 244 × 4
   canceled_service .pred_class .pred_yes .pred_no
   <fct>            <fct>           <dbl>    <dbl>
 1 yes              yes            0.826     0.174
 2 no               no             0.0899    0.910
 3 yes              yes            0.516     0.484
 4 no               yes            0.613     0.387
 5 no               no             0.260     0.740
 6 no               no             0.0499    0.950
 7 no               no             0.271     0.729
 8 no               no             0.0397    0.960
 9 no               no             0.0262    0.974
10 no               no             0.0709    0.929
# … with 234 more rows
…
